…
    median(sum_steps$sum_s)

    ## [1] 10765

What is the average daily activity pattern?
-------------------------------------------

Make a time series plot of the 5-minute interval (x-axis) and the
average number of steps taken, averaged across all days (y-axis).

    activity_interval <- group_by(activity, interval)
    mean_interval <- summarise(activity_interval, mean_i = mean(steps, na.rm = TRUE))
    mean_interval

    ## # A tibble: 288 x 2
    ##    interval mean_i
    ##       <int>  <dbl>
    ##  1        0 1.72  
    ##  2        5 0.340 
    ##  3       10 0.132 
    ##  4       15 0.151 
    ##  5       20 0.0755
    ##  6       25 2.09  
    ##  7       30 0.528 
    ##  8       35 0.868 
    ##  9       40 0     
    ## 10       45 1.47  
    ## # ... with 278 more rows
…
    ## [1] 2304

Creating is the new dataset that is equal to the original dataset but
with the missing data filled in. For filling NA used mean value.

    activity_mean <- mutate(activity_interval,Mean=mean(steps,na.rm=TRUE),steps=replace(steps,which(is.na(steps)),first(Mean)))

    sum_steps_noNA <- group_by(activity_mean, date)
    sum_steps_noNA <- filter(sum_steps_noNA, steps > 0)

    sum_steps_noNA1 <- summarize(sum_steps_noNA,sum_s=sum(steps)) 
    sum_steps_noNA1

    ## # A tibble: 61 x 2
    ##    date        sum_s
    ##    <date>      <dbl>
    ##  1 2012-10-01 10766.
    ##  2 2012-10-02   126 
    ##  3 2012-10-03 11352 
    ##  4 2012-10-04 12116 
    ##  5 2012-10-05 13294 
    ##  6 2012-10-06 15420 
    ##  7 2012-10-07 11015 
    ##  8 2012-10-08 10766.
    ##  9 2012-10-09 12811 
    ## 10 2012-10-10  9900 
    ## # ... with 51 more rows
…
